{
	"message":"操作成功！",
	"data":{
		"result":[
			{"id":0,"name":"<a>zhangfei</a>","class":"A","date":"2012.12","abc":{"a":"100","b":"200"}},
			{"id":1,"name":"guanyu","class":"B","date":"2012.13","abc":{"a":"200","b":"200"}},
			{"id":2,"name":"liubei","class":"C","date":"2012.14","abc":{"a":"300","b":"200"}},
			{"id":3,"name":"zhaoyun","class":"D","date":"2012.15","abc":{"a":"400","b":"200"}},
			{"id":4,"name":"zhangfei","class":"E","date":"2012.12","abc":{"a":"500","b":"200"}},
			{"id":5,"name":"guanyu","class":"F","date":"2012.13","abc":{"a":"600","b":"200"}},
			{"id":6,"name":"liubei","class":"C","date":"2012.14","abc":{"a":"300","b":"200"}},
			{"id":7,"name":"zhaoyun","class":"D","date":"2012.15","abc":{"a":"400","b":"200"}},
			{"id":8,"name":"zhangfei","class":"E","date":"2012.12","abc":{"a":"500","b":"200"}},
			{"id":9,"name":"guanyu","class":"F","date":"2012.13","abc":{"a":"600","b":"200"}},
			{"id":10,"name":"liubei","class":"C","date":"2012.14","abc":{"a":"300","b":"200"}},
			{"id":11,"name":"zhaoyun","class":"D","date":"2012.15","abc":{"a":"400","b":"200"}},
			{"id":12,"name":"zhangfei","class":"E","date":"2012.12","abc":{"a":"500","b":"200"}},
			{"id":13,"name":"guanyu","class":"F","date":"2012.13","abc":{"a":"600","b":"200"}},
			{"id":14,"name":"liubei","class":"G","date":"2012.14","abc":{"a":"700","b":"200"}},
			{"id":15,"name":"zhaoyun","class":"H","date":"2012.15","abc":{"a":"800","b":"200"}}
		],
		"totalCount":100,
		"totalPages":5,
		"pageNo":1
	},
	"code":200
}